<?xml version="1.0" encoding="utf-8"?>
<!-- Generator: Adobe Illustrator 16.0.0, SVG Export Plug-In . SVG Version: 6.00 Build 0)  -->
<!DOCTYPE svg PUBLIC "-//W3C//DTD SVG 1.1//EN" "http://www.w3.org/Graphics/SVG/1.1/DTD/svg11.dtd">
<svg version="1.1" id="Layer_1" xmlns="http://www.w3.org/2000/svg" xmlns:xlink="http://www.w3.org/1999/xlink" x="0px" y="0px"
	 width="100px" height="60px" viewBox="0 0 100 60" enable-background="new 0 0 100 60" xml:space="preserve">
<path fill="#3B383B" d="M86.232,50.658c2.582,0,4.577-2.258,4.577-4.835V4.835C90.81,2.258,88.814,0,86.232,0H14.387
	C11.804,0,9.81,2.258,9.81,4.835v40.988c0,2.577,1.995,4.835,4.577,4.835h28.053v4.725h-32.14c-0.736,1.657,0.01,3.599,1.669,4.334
	c0.473,0.21,0.99,0.306,1.508,0.277h73.795c1.811,0.028,3.303-1.417,3.331-3.228c0.008-0.477-0.089-0.948-0.281-1.384H58.179v-4.725
	H86.232z M13.101,45.823V4.835c0-0.963,0.624-1.595,1.286-1.595h71.846c0.662,0,1.285,0.631,1.285,1.595v40.988
	c0,0.963-0.623,1.543-1.285,1.543H14.387C13.725,47.366,13.101,46.786,13.101,45.823z"/>
<g>
	<path fill="#ED1F77" d="M50.31,33.593c0.477,0,0.877-0.27,1.101-0.655h-2.201C49.433,33.323,49.832,33.593,50.31,33.593z"/>
	<path fill="#ED1F77" d="M50.31,24.232c-0.496,0-0.911,0.288-1.128,0.697h2.256C51.222,24.521,50.805,24.232,50.31,24.232z"/>
	<path fill="#ED1F77" d="M56.766,24.018c0-3.561-2.896-6.458-6.456-6.458c-3.56,0-6.456,2.897-6.456,6.458
		c0,2.632,1.604,4.866,3.873,5.865v-3.01c-0.787-0.706-1.29-1.716-1.29-2.855c0-2.136,1.737-3.874,3.873-3.874
		s3.874,1.738,3.874,3.874c0,1.131-0.498,2.138-1.277,2.842v3.019C55.168,28.876,56.766,26.646,56.766,24.018z"/>
	<path fill="#ED1F77" d="M51.601,25.525c0-0.219-0.068-0.416-0.163-0.596h-2.256c-0.095,0.18-0.164,0.376-0.164,0.596v6.777
		c0,0.236,0.081,0.445,0.191,0.636h2.201c0.11-0.19,0.19-0.399,0.19-0.636V25.525z"/>
</g>
</svg>
