<?xml version="1.0" encoding="utf-8"?>
<!-- Generator: Adobe Illustrator 16.0.0, SVG Export Plug-In . SVG Version: 6.00 Build 0)  -->
<!DOCTYPE svg PUBLIC "-//W3C//DTD SVG 1.1//EN" "http://www.w3.org/Graphics/SVG/1.1/DTD/svg11.dtd">
<svg version="1.1" id="Layer_1" xmlns="http://www.w3.org/2000/svg" xmlns:xlink="http://www.w3.org/1999/xlink" x="0px" y="0px"
	 width="200px" height="200px" viewBox="0 0 200 200" enable-background="new 0 0 200 200" xml:space="preserve">
<g>
	<path fill="#E9E9E9" d="M140.178,78.297c5.612,0,11.009,0.728,16.073,2.062C153.123,47.71,119.611,21.998,78.756,22
		C35.784,22,1,50.366,1,85.348c0,18.984,10.252,36.037,26.516,47.578c-3.478,6.17-5.881,11.679-20.259,22.204
		c-1.291,0.975-2.75,2.161-2.311,2.768c0.381,0.515,2.146,0.599,6.588-0.254c14.853-2.732,25.944-7.089,38.405-13.48
		c8.939,2.906,18.619,4.494,28.82,4.494c6.89,0,13.57-0.74,19.933-2.109c-6.698-7.143-10.685-16.063-10.685-25.747
		C88.006,97.331,111.382,78.297,140.178,78.297z"/>
	<path fill="#E9E9E9" d="M193.327,172.476c-9.645-7.064-11.26-10.757-13.59-14.898c10.912-7.743,17.79-19.186,17.79-31.922
		c0-18.904-15.146-34.92-36.1-40.443c0.158,1.648,0.263,3.308,0.263,4.988c0,29.363-24.556,54.03-57.822,61.198
		c9.537,10.169,24.572,16.731,41.486,16.731c6.845,0,13.337-1.066,19.339-3.016c8.358,4.288,15.799,7.211,25.766,9.046
		c2.98,0.568,4.168,0.515,4.422,0.168C195.174,173.923,194.198,173.128,193.327,172.476z"/>
	<path fill="#E9E9E9" d="M156.512,85.348c0-1.681-0.105-3.34-0.263-4.989c-5.062-1.333-10.459-2.062-16.071-2.062
		c-28.796,0-52.172,19.033-52.172,42.503c0,9.684,3.987,18.604,10.683,25.747C131.958,139.378,156.512,114.71,156.512,85.348z"/>
</g>
</svg>
