<?xml version="1.0" encoding="utf-8"?>
<!-- Generator: Adobe Illustrator 16.0.0, SVG Export Plug-In . SVG Version: 6.00 Build 0)  -->
<!DOCTYPE svg PUBLIC "-//W3C//DTD SVG 1.1//EN" "http://www.w3.org/Graphics/SVG/1.1/DTD/svg11.dtd">
<svg version="1.1" id="Layer_1" xmlns="http://www.w3.org/2000/svg" xmlns:xlink="http://www.w3.org/1999/xlink" x="0px" y="0px"
	 width="792px" height="612px" viewBox="0 0 792 612" enable-background="new 0 0 792 612" xml:space="preserve">
<g>
	<path fill="#D1D0D0" d="M432.317,7.231l255.997,365.502c5.04-21.791,7.793-44.467,7.793-67.729
		C696.107,151.572,580.854,25.156,432.317,7.231z"/>
	<path fill="#D1D0D0" d="M428.275,6.733C417.671,5.59,406.946,5,396.106,5c-71.308,0-136.698,24.932-188.144,66.45v-0.092
		c-0.353,0.239-0.702,0.59-0.997,0.854c-15.702,12.773-30.115,27.012-42.89,42.652c-2.93,3.52-5.448,7.241-8.146,10.869
		c-3.162,4.194-6.386,8.291-9.315,12.661c-2.93,4.39-5.506,8.931-8.146,13.418c-2.343,3.921-4.746,7.701-6.97,11.744
		c-2.461,4.575-4.513,9.35-6.74,14.062c-1.935,4.135-4.042,8.232-5.801,12.484c-1.932,4.629-3.457,9.316-5.099,13.975
		c-1.641,4.595-3.398,9.082-4.832,13.769c-1.406,4.684-2.462,9.463-3.663,14.209c-1.172,4.746-2.491,9.434-3.457,14.238
		c-1.113,5.566-1.788,11.191-2.607,16.812c-0.527,4.076-1.319,8.086-1.701,12.221c-1.024,10.02-1.493,20.068-1.493,30.201
		c0,8.555,0.469,16.996,1.2,25.361c0.234,2.462,0.499,4.819,0.762,7.269c0.763,6.69,1.699,13.363,2.873,19.927
		c0.409,2.116,0.703,4.277,1.142,6.387c1.729,8.443,3.72,16.765,6.094,24.962c0.438,1.523,0.996,2.989,1.465,4.458
		c2.108,6.681,4.395,13.301,6.914,19.802c1.055,2.694,2.11,5.39,3.28,8.027c2.638,6.272,5.452,12.425,8.556,18.46
		c1.289,2.578,2.58,5.153,3.984,7.676c2.638,4.92,5.39,9.787,8.319,14.533v-0.414c10.608,17.229,23.145,33.634,37.561,48.869v0.351
		c0.703,0.764,1.581,1.465,2.341,2.17c1.172,1.23,2.169,2.578,3.342,3.807c1.816,1.76,3.867,3.166,5.741,4.923
		c6.621,6.327,13.534,12.306,20.685,18.046c3.104,2.404,6.208,4.924,9.373,7.267c9.553,7.03,19.512,13.593,29.942,19.396
		c2.284,1.288,4.63,2.284,6.972,3.515c8.674,4.57,17.638,8.73,26.838,12.48c3.397,1.349,6.737,2.637,10.193,3.868
		c9.024,3.281,18.225,6.151,27.715,8.555c1.816,0.525,3.574,1.287,5.449,1.698l-0.058-0.235c19.804,4.689,40.43,7.385,61.583,7.912
		l-0.471,0.234c0.997,0.057,1.994-0.061,3.049-0.06c1.756,0.058,3.398,0.235,5.154,0.235c5.979,0,11.895-0.411,17.813-0.762
		c1.582-0.061,3.164-0.06,4.804-0.177c19.513-1.465,38.497-4.747,56.837-9.785c1.522-0.41,2.989-0.995,4.57-1.407
		c7.325-2.167,14.591-4.568,21.739-7.207c2.811-1.055,5.565-2.227,8.32-3.397c5.858-2.402,11.6-4.98,17.225-7.733
		c3.164-1.523,6.271-3.048,9.318-4.689c5.508-2.929,10.84-6.035,16.17-9.316c2.756-1.699,5.625-3.339,8.38-5.155
		c7.558-4.98,14.883-10.312,21.914-15.938c2.227-1.759,4.394-3.752,6.562-5.626c5.1-4.393,10.137-8.789,14.942-13.476
		c1.171-1.112,2.401-2.051,3.516-3.164l-0.645,0.235c38.32-38.147,66.562-86.485,79.921-140.747L428.275,6.733z"/>
</g>
</svg>
