<?xml version="1.0" encoding="utf-8"?>
<!-- Generator: Adobe Illustrator 16.0.0, SVG Export Plug-In . SVG Version: 6.00 Build 0)  -->
<!DOCTYPE svg PUBLIC "-//W3C//DTD SVG 1.1//EN" "http://www.w3.org/Graphics/SVG/1.1/DTD/svg11.dtd">
<svg version="1.1" id="Layer_1" xmlns="http://www.w3.org/2000/svg" xmlns:xlink="http://www.w3.org/1999/xlink" x="0px" y="0px"
	 width="167.165px" height="35.401px" viewBox="0 0 167.165 35.401" enable-background="new 0 0 167.165 35.401"
	 xml:space="preserve">
<g>
	<path fill="#ED1B76" d="M3.62,19.407H1v-6.196h2.62V8.776c0-2.605,0.637-4.546,1.912-5.821c0.693-0.693,1.512-1.192,2.455-1.498
		C8.929,1.152,10.066,1,11.396,1c1.221,0,2.225,0.056,3.016,0.166c0.79,0.111,1.504,0.264,2.142,0.457v5.573
		c-0.472-0.139-0.942-0.249-1.415-0.333c-0.472-0.083-0.984-0.125-1.538-0.125c-1.498,0-2.246,0.707-2.246,2.121V13.2h5.069v6.207
		H11.48V31.65H3.62V19.407z"/>
	<path fill="#ED1B76" d="M20.506,1.623h7.944v10.606c0.711-0.943,1.602-1.775,2.67-2.497c1.068-0.721,2.396-1.081,3.985-1.081
		c2.424,0,4.313,0.735,5.665,2.205s2.028,3.493,2.028,6.071V31.65h-7.943V19.464c0-1.247-0.288-2.189-0.862-2.827
		c-0.575-0.638-1.327-0.956-2.258-0.956c-0.958,0-1.746,0.318-2.361,0.956c-0.616,0.638-0.924,1.58-0.924,2.827V31.65h-7.944V1.623z
		"/>
</g>
<text transform="matrix(1 0 0 1 54.7144 31.5723)" fill="#373437" font-family="'GothamMedium'" font-size="28.4054">studio</text>
</svg>
