<?xml version="1.0" encoding="utf-8"?>
<!-- Generator: Adobe Illustrator 16.0.0, SVG Export Plug-In . SVG Version: 6.00 Build 0)  -->
<!DOCTYPE svg PUBLIC "-//W3C//DTD SVG 1.1//EN" "http://www.w3.org/Graphics/SVG/1.1/DTD/svg11.dtd">
<svg version="1.1" id="Layer_1" xmlns="http://www.w3.org/2000/svg" xmlns:xlink="http://www.w3.org/1999/xlink" x="0px" y="0px"
	 width="173px" height="60px" viewBox="0 0 173 60" enable-background="new 0 0 173 60" xml:space="preserve">
<path fill="#ED1F76" d="M1,47.859V16.936c0-2.707,0.714-4.741,2.143-6.094c1.355-1.279,3.575-1.919,6.658-1.919
	c0.752,0,1.356,0.036,1.81,0.113c0.826,0,1.468,0.039,1.916,0.112v6.208h-2.028c-1.058,0-1.81,0.151-2.262,0.452
	c-0.377,0.3-0.562,0.902-0.562,1.806v2.03h4.852v1.694c0,1.128-0.375,2.049-1.129,2.764c-0.754,0.719-1.62,1.075-2.598,1.075H8.675
	v22.684H1L1,47.859z"/>
<path fill="#ED1F76" d="M34.964,26.304c-1.131-1.582-2.67-2.372-4.627-2.372c-2.109,0-3.723,0.755-4.854,2.26
	c-1.13,1.506-1.691,3.572-1.691,6.205v15.463h-7.674V9.036h3.836c1.05,0,1.958,0.378,2.71,1.128c0.752,0.754,1.128,1.657,1.128,2.71
	v8.915c1.356-2.257,3.274-3.685,5.753-4.288c2.486-0.602,4.856-0.45,7.111,0.453c2.107,0.902,3.875,2.333,5.307,4.288
	c1.43,1.959,2.145,4.666,2.145,8.127v17.492h-7.565V32.285c0-1.129-0.092-2.161-0.282-3.104
	C36.073,28.242,35.639,27.283,34.964,26.304z"/>
<path fill="#373538" d="M56.002,40.033h6.049c0.058,1.188,0.501,2.076,1.332,2.668c0.892,0.596,2.074,0.889,3.561,0.889
	c1.068,0,1.987-0.207,2.756-0.623c0.712-0.414,1.068-0.977,1.068-1.688c0-1.069-1.245-1.872-3.735-2.403
	c-1.069-0.177-1.87-0.357-2.4-0.533c-3.146-0.771-5.25-1.691-6.316-2.758c-1.188-1.068-1.783-2.494-1.783-4.271
	c0-2.253,0.861-4.119,2.58-5.604c1.781-1.363,4.094-2.046,6.939-2.046c3.083,0,5.544,0.683,7.382,2.046
	c1.719,1.484,2.638,3.41,2.757,5.783h-3.825c-1.125,0-1.986-0.504-2.579-1.516c-0.234-0.234-0.474-0.475-0.71-0.709
	c-0.711-0.532-1.69-0.803-2.938-0.803c-1.187,0-2.072,0.181-2.667,0.535c-0.532,0.357-0.8,0.891-0.8,1.6
	c0,0.951,1.54,1.75,4.625,2.402c0.356,0.119,0.666,0.207,0.932,0.268c0.271,0.06,0.521,0.09,0.76,0.09
	c3.023,0.768,5.127,1.659,6.314,2.666c1.127,1.068,1.69,2.49,1.69,4.269c0,2.612-0.948,4.628-2.845,6.05
	c-1.78,1.308-4.45,1.956-8.007,1.956c-3.382,0-5.903-0.68-7.56-2.045c-1.719-1.364-2.58-3.351-2.58-5.962L56.002,40.033
	L56.002,40.033z"/>
<path fill="#373538" d="M89.055,47.859c-1.957,0.118-4.077,0.089-6.361-0.087c-2.282-0.179-3.424-1.631-3.424-4.36V17.259h3.202
	c0.771,0,1.453,0.298,2.046,0.889c0.595,0.594,0.893,1.305,0.893,2.134v4.004h3.646v1.245c0,0.89-0.299,1.615-0.891,2.18
	c-0.594,0.564-1.303,0.846-2.137,0.846h-0.618v13.165c0,1.011,0.59,1.515,1.776,1.515h1.869V47.859z"/>
<path fill="#373538" d="M112.494,24.197v13.88c0,4.21-1.097,6.966-3.293,8.271c-2.191,1.308-4.594,1.956-7.205,1.956
	c-2.548-0.118-4.876-0.828-6.982-2.134c-2.105-1.304-3.16-4.003-3.16-8.094v-13.88h6.227v15.125c0,1.424,0.415,2.461,1.248,3.113
	c0.826,0.652,1.777,0.979,2.844,0.979c1.068,0,2.032-0.323,2.894-0.979c0.858-0.65,1.29-1.689,1.29-3.113V27.222
	c0-0.831,0.282-1.54,0.846-2.136c0.564-0.589,1.287-0.889,2.176-0.889H112.494z"/>
<path fill="#373538" d="M131.059,17.169h3.029c0.827,0,1.537,0.311,2.132,0.935c0.593,0.623,0.891,1.32,0.891,2.091v17.348
	c0,4.21-1.216,7.057-3.648,8.537c-2.436,1.485-5.068,2.225-7.915,2.225c-1.546,0-3.058-0.253-4.537-0.756
	c-1.488-0.504-2.668-1.32-3.562-2.447c-1.716-2.193-2.577-5.189-2.577-8.984c0-3.735,0.861-6.73,2.577-8.982
	c1.777-2.315,4.063-3.471,6.854-3.471c1.48,0,2.783,0.298,3.914,0.888c1.182,0.713,2.138,1.631,2.844,2.758V17.169L131.059,17.169z
	 M120.918,35.852c0,2.373,0.445,4.182,1.336,5.427c0.894,1.241,2.162,1.868,3.825,1.868c1.603,0,2.848-0.623,3.734-1.868
	c0.828-1.246,1.245-3.055,1.245-5.427c0-2.135-0.439-3.825-1.333-5.07c-0.946-1.188-2.224-1.779-3.822-1.779
	c-1.544,0-2.756,0.623-3.649,1.868C121.363,32.057,120.918,33.717,120.918,35.852z"/>
<path fill="#373538" d="M139.97,17.259h3.2c0.833,0,1.545,0.298,2.134,0.889c0.596,0.594,0.893,1.305,0.893,2.134v1.868h-6.227
	V17.259z M139.97,24.197h3.2c0.833,0,1.545,0.299,2.134,0.889c0.596,0.596,0.893,1.305,0.893,2.136v20.638h-6.227V24.197z"/>
<path fill="#373538" d="M152.676,45.726c-1.247-1.068-2.135-2.504-2.666-4.313c-0.531-1.809-0.805-3.693-0.805-5.65
	c0-1.602,0.226-3.199,0.665-4.805c0.447-1.599,1.143-2.933,2.099-4.002c1.536-1.778,3.526-2.831,5.96-3.158
	c2.428-0.325,4.622-0.133,6.579,0.58c2.253,0.888,3.915,2.432,4.981,4.625c1.008,1.955,1.511,4.241,1.511,6.85
	c0,1.9-0.205,3.528-0.619,4.895c-0.416,1.364-0.947,2.52-1.604,3.47c-1.423,1.955-3.229,3.172-5.425,3.644
	c-1.958,0.536-3.929,0.58-5.915,0.135C155.447,47.55,153.864,46.791,152.676,45.726z M156.95,30.068
	c-1.245,1.365-1.814,3.395-1.693,6.092c0.118,2.702,0.622,4.582,1.513,5.65c0.354,0.475,0.978,0.875,1.865,1.201
	c0.893,0.326,1.796,0.354,2.717,0.088c0.918-0.267,1.732-0.934,2.442-2c0.713-1.067,1.098-2.789,1.158-5.16
	c0-2.136-0.341-3.737-1.023-4.803c-0.682-1.068-1.467-1.75-2.355-2.049c-0.889-0.294-1.78-0.309-2.673-0.043
	C158.017,29.312,157.36,29.656,156.95,30.068z"/>
</svg>
