<?xml version="1.0" encoding="utf-8"?>
<!-- Generator: Adobe Illustrator 16.0.0, SVG Export Plug-In . SVG Version: 6.00 Build 0)  -->
<!DOCTYPE svg PUBLIC "-//W3C//DTD SVG 1.1//EN" "http://www.w3.org/Graphics/SVG/1.1/DTD/svg11.dtd">
<svg version="1.1" id="Layer_1" xmlns="http://www.w3.org/2000/svg" xmlns:xlink="http://www.w3.org/1999/xlink" x="0px" y="0px"
	 width="100px" height="100px" viewBox="0 0 100 100" enable-background="new 0 0 100 100" xml:space="preserve">
<path fill="#373437" d="M88.895,11.105c-14.807-14.807-38.812-14.807-53.619,0c-14.807,14.806-14.807,38.812,0,53.62
	c14.807,14.807,38.812,14.807,53.619,0C103.702,49.917,103.702,25.912,88.895,11.105z M84.662,60.492
	c-12.469,12.468-32.684,12.468-45.153,0c-12.468-12.469-12.468-32.685,0-45.153c12.47-12.468,32.685-12.469,45.153,0
	C97.13,27.808,97.13,48.022,84.662,60.492z"/>
<rect x="12.355" y="61.699" transform="matrix(-0.7071 -0.7071 0.7071 -0.7071 -26.4306 152.3598)" fill="#373437" width="11.973" height="39.91"/>
</svg>
