<?xml version="1.0" encoding="utf-8"?>
<!-- Generator: Adobe Illustrator 16.0.0, SVG Export Plug-In . SVG Version: 6.00 Build 0)  -->
<!DOCTYPE svg PUBLIC "-//W3C//DTD SVG 1.1//EN" "http://www.w3.org/Graphics/SVG/1.1/DTD/svg11.dtd">
<svg version="1.1" id="Logo" xmlns="http://www.w3.org/2000/svg" xmlns:xlink="http://www.w3.org/1999/xlink" x="0px" y="0px"
	 width="279.332px" height="281.333px" viewBox="0 0 279.332 281.333" enable-background="new 0 0 279.332 281.333"
	 xml:space="preserve">
<g>
	<path fill="#373437" d="M139.645,3.958C63.879,3.958,2.45,65.381,2.45,141.15c0,56.177,33.781,104.438,82.12,125.656
		c-0.386-9.58-0.069-21.08,2.388-31.503c2.638-11.138,17.653-74.756,17.653-74.756s-4.383-8.76-4.383-21.707
		c0-20.33,11.784-35.515,26.459-35.515c12.479,0,18.507,9.373,18.507,20.597c0,12.545-8,31.309-12.115,48.688
		c-3.437,14.553,7.297,26.423,21.654,26.423c25.993,0,43.5-33.385,43.5-72.94c0-30.068-20.252-52.574-57.086-52.574
		c-41.616,0-67.542,31.035-67.542,65.701c0,11.952,3.524,20.382,9.044,26.908c2.538,2.998,2.891,4.204,1.972,7.646
		c-0.658,2.524-2.169,8.602-2.795,11.01c-0.914,3.475-3.729,4.717-6.869,3.434c-19.168-7.825-28.096-28.816-28.096-52.413
		c0-38.972,32.868-85.702,98.052-85.702c52.379,0,86.852,37.903,86.852,78.59c0,53.818-29.92,94.025-74.024,94.025
		c-14.812,0-28.744-8.007-33.516-17.101c0,0-7.965,31.609-9.652,37.713c-2.908,10.578-8.602,21.149-13.808,29.39
		c12.339,3.643,25.373,5.626,38.882,5.626c75.76,0,137.186-61.424,137.186-137.195C276.831,65.381,215.405,3.958,139.645,3.958z"/>
</g>
</svg>
