<?xml version="1.0" encoding="utf-8"?>
<!-- Generator: Adobe Illustrator 16.0.0, SVG Export Plug-In . SVG Version: 6.00 Build 0)  -->
<!DOCTYPE svg PUBLIC "-//W3C//DTD SVG 1.1//EN" "http://www.w3.org/Graphics/SVG/1.1/DTD/svg11.dtd">
<svg version="1.1" id="Layer_1" xmlns="http://www.w3.org/2000/svg" xmlns:xlink="http://www.w3.org/1999/xlink" x="0px" y="0px"
	 width="792px" height="612px" viewBox="0 0 792 612" enable-background="new 0 0 792 612" xml:space="preserve">
<path id="Google" fill="#DEDDDD" d="M474.678,16H317.703c-41.124,0-92.947,6.062-136.337,41.829
	c-32.82,28.18-48.766,66.976-48.766,102.008c0,59.359,45.71,119.513,126.478,119.513c7.618,0,15.947-0.766,24.387-1.527
	c-3.798,9.117-7.649,16.734-7.649,29.689c0,23.583,12.205,38.025,22.855,51.732c-34.241,2.267-98.271,6.062-145.537,35
	c-44.945,26.681-58.681,65.477-58.681,92.891C94.45,543.439,147.781,596,258.285,596c131.041,0,200.42-72.326,200.42-143.921
	c0-52.453-30.474-78.391-64.004-106.543l-27.466-21.297c-8.329-6.855-19.769-15.973-19.769-32.738
	c0-16.737,11.439-27.414,21.299-37.299c32-25.118,64.005-51.742,64.005-108.071c0-57.859-36.592-88.329-54.094-102.773h47.29
	L474.678,16z M407.673,481.811c0,47.183-38.907,82.186-112.035,82.186c-81.53,0-134.121-38.851-134.121-92.834
	c0-54.091,48.792-72.324,65.53-78.391c32.005-10.7,73.152-12.179,80.004-12.179c7.62,0,11.418,0,17.535,0.737
	C382.526,422.399,407.673,443.01,407.673,481.811z M346.676,236.727c-12.181,12.15-32.771,21.297-51.829,21.297
	c-65.504,0-95.211-84.508-95.211-135.484c0-19.796,3.822-40.329,16.762-56.329c12.181-15.234,33.505-25.121,53.33-25.121
	c63.238,0,96.032,85.246,96.032,140.019C365.759,194.843,364.179,219.171,346.676,236.727z"/>
<g>
	<path fill="#DEDDDD" d="M631.407,16v94.107h90.51v24.017h-90.51v94.901h-25.605v-94.901h-90.509v-24.017h90.509V16H631.407z"/>
</g>
</svg>
